%!PS-Adobe-3.0 EPSF-3.0
%%Creator: (MATLAB, The Mathworks, Inc. Version 9.5.0.944444 \(R2018b\). Operating System: Linux)
%%Title: /winc/jk/chalmers/courses/TME245/projects/project2/imgs/openingforce.eps
%%CreationDate: 2019-02-25T23:50:12
%%Pages: (atend)
%%BoundingBox: 0 0 662 390
%%LanguageLevel: 3
%%EndComments
%%BeginProlog
%%BeginResource: procset (Apache XML Graphics Std ProcSet) 1.2 0
%%Version: 1.2 0
%%Copyright: (Copyright 2001-2003,2010 The Apache Software Foundation. License terms: http://www.apache.org/licenses/LICENSE-2.0)
/bd{bind def}bind def
/ld{load def}bd
/GR/grestore ld
/GS/gsave ld
/RM/rmoveto ld
/C/curveto ld
/t/show ld
/L/lineto ld
/ML/setmiterlimit ld
/CT/concat ld
/f/fill ld
/N/newpath ld
/S/stroke ld
/CC/setcmykcolor ld
/A/ashow ld
/cp/closepath ld
/RC/setrgbcolor ld
/LJ/setlinejoin ld
/GC/setgray ld
/LW/setlinewidth ld
/M/moveto ld
/re {4 2 roll M
1 index 0 rlineto
0 exch rlineto
neg 0 rlineto
cp } bd
/_ctm matrix def
/_tm matrix def
/BT { _ctm currentmatrix pop matrix _tm copy pop 0 0 moveto } bd
/ET { _ctm setmatrix } bd
/iTm { _ctm setmatrix _tm concat } bd
/Tm { _tm astore pop iTm 0 0 moveto } bd
/ux 0.0 def
/uy 0.0 def
/F {
  /Tp exch def
  /Tf exch def
  Tf findfont Tp scalefont setfont
  /cf Tf def  /cs Tp def
} bd
/ULS {currentpoint /uy exch def /ux exch def} bd
/ULE {
  /Tcx currentpoint pop def
  gsave
  newpath
  cf findfont cs scalefont dup
  /FontMatrix get 0 get /Ts exch def /FontInfo get dup
  /UnderlinePosition get Ts mul /To exch def
  /UnderlineThickness get Ts mul /Tt exch def
  ux uy To add moveto  Tcx uy To add lineto
  Tt setlinewidth stroke
  grestore
} bd
/OLE {
  /Tcx currentpoint pop def
  gsave
  newpath
  cf findfont cs scalefont dup
  /FontMatrix get 0 get /Ts exch def /FontInfo get dup
  /UnderlinePosition get Ts mul /To exch def
  /UnderlineThickness get Ts mul /Tt exch def
  ux uy To add cs add moveto Tcx uy To add cs add lineto
  Tt setlinewidth stroke
  grestore
} bd
/SOE {
  /Tcx currentpoint pop def
  gsave
  newpath
  cf findfont cs scalefont dup
  /FontMatrix get 0 get /Ts exch def /FontInfo get dup
  /UnderlinePosition get Ts mul /To exch def
  /UnderlineThickness get Ts mul /Tt exch def
  ux uy To add cs 10 mul 26 idiv add moveto Tcx uy To add cs 10 mul 26 idiv add lineto
  Tt setlinewidth stroke
  grestore
} bd
/QT {
/Y22 exch store
/X22 exch store
/Y21 exch store
/X21 exch store
currentpoint
/Y21 load 2 mul add 3 div exch
/X21 load 2 mul add 3 div exch
/X21 load 2 mul /X22 load add 3 div
/Y21 load 2 mul /Y22 load add 3 div
/X22 load /Y22 load curveto
} bd
/SSPD {
dup length /d exch dict def
{
/v exch def
/k exch def
currentpagedevice k known {
/cpdv currentpagedevice k get def
v cpdv ne {
/upd false def
/nullv v type /nulltype eq def
/nullcpdv cpdv type /nulltype eq def
nullv nullcpdv or
{
/upd true def
} {
/sametype v type cpdv type eq def
sametype {
v type /arraytype eq {
/vlen v length def
/cpdvlen cpdv length def
vlen cpdvlen eq {
0 1 vlen 1 sub {
/i exch def
/obj v i get def
/cpdobj cpdv i get def
obj cpdobj ne {
/upd true def
exit
} if
} for
} {
/upd true def
} ifelse
} {
v type /dicttype eq {
v {
/dv exch def
/dk exch def
/cpddv cpdv dk get def
dv cpddv ne {
/upd true def
exit
} if
} forall
} {
/upd true def
} ifelse
} ifelse
} if
} ifelse
upd true eq {
d k v put
} if
} if
} if
} forall
d length 0 gt {
d setpagedevice
} if
} bd
/RE { % /NewFontName [NewEncodingArray] /FontName RE -
  findfont dup length dict begin
  {
    1 index /FID ne
    {def} {pop pop} ifelse
  } forall
  /Encoding exch def
  /FontName 1 index def
  currentdict definefont pop
  end
} bind def
%%EndResource
%%BeginResource: procset (Apache XML Graphics EPS ProcSet) 1.0 0
%%Version: 1.0 0
%%Copyright: (Copyright 2002-2003 The Apache Software Foundation. License terms: http://www.apache.org/licenses/LICENSE-2.0)
/BeginEPSF { %def
/b4_Inc_state save def         % Save state for cleanup
/dict_count countdictstack def % Count objects on dict stack
/op_count count 1 sub def      % Count objects on operand stack
userdict begin                 % Push userdict on dict stack
/showpage { } def              % Redefine showpage, { } = null proc
0 setgray 0 setlinecap         % Prepare graphics state
1 setlinewidth 0 setlinejoin
10 setmiterlimit [ ] 0 setdash newpath
/languagelevel where           % If level not equal to 1 then
{pop languagelevel             % set strokeadjust and
1 ne                           % overprint to their defaults.
{false setstrokeadjust false setoverprint
} if
} if
} bd
/EndEPSF { %def
count op_count sub {pop} repeat            % Clean up stacks
countdictstack dict_count sub {end} repeat
b4_Inc_state restore
} bd
%%EndResource
%FOPBeginFontDict
%%IncludeResource: font Courier-Oblique
%%IncludeResource: font Courier-BoldOblique
%%IncludeResource: font Courier-Bold
%%IncludeResource: font ZapfDingbats
%%IncludeResource: font Symbol
%%IncludeResource: font Helvetica
%%IncludeResource: font Helvetica-Oblique
%%IncludeResource: font Helvetica-Bold
%%IncludeResource: font Helvetica-BoldOblique
%%IncludeResource: font Times-Roman
%%IncludeResource: font Times-Italic
%%IncludeResource: font Times-Bold
%%IncludeResource: font Times-BoldItalic
%%IncludeResource: font Courier
%FOPEndFontDict
%%BeginResource: encoding WinAnsiEncoding
/WinAnsiEncoding [
/.notdef /.notdef /.notdef /.notdef /.notdef
/.notdef /.notdef /.notdef /.notdef /.notdef
/.notdef /.notdef /.notdef /.notdef /.notdef
/.notdef /.notdef /.notdef /.notdef /.notdef
/.notdef /.notdef /.notdef /.notdef /.notdef
/.notdef /.notdef /.notdef /.notdef /.notdef
/.notdef /.notdef /space /exclam /quotedbl
/numbersign /dollar /percent /ampersand /quotesingle
/parenleft /parenright /asterisk /plus /comma
/hyphen /period /slash /zero /one
/two /three /four /five /six
/seven /eight /nine /colon /semicolon
/less /equal /greater /question /at
/A /B /C /D /E
/F /G /H /I /J
/K /L /M /N /O
/P /Q /R /S /T
/U /V /W /X /Y
/Z /bracketleft /backslash /bracketright /asciicircum
/underscore /quoteleft /a /b /c
/d /e /f /g /h
/i /j /k /l /m
/n /o /p /q /r
/s /t /u /v /w
/x /y /z /braceleft /bar
/braceright /asciitilde /bullet /Euro /bullet
/quotesinglbase /florin /quotedblbase /ellipsis /dagger
/daggerdbl /circumflex /perthousand /Scaron /guilsinglleft
/OE /bullet /Zcaron /bullet /bullet
/quoteleft /quoteright /quotedblleft /quotedblright /bullet
/endash /emdash /asciitilde /trademark /scaron
/guilsinglright /oe /bullet /zcaron /Ydieresis
/space /exclamdown /cent /sterling /currency
/yen /brokenbar /section /dieresis /copyright
/ordfeminine /guillemotleft /logicalnot /sfthyphen /registered
/macron /degree /plusminus /twosuperior /threesuperior
/acute /mu /paragraph /middot /cedilla
/onesuperior /ordmasculine /guillemotright /onequarter /onehalf
/threequarters /questiondown /Agrave /Aacute /Acircumflex
/Atilde /Adieresis /Aring /AE /Ccedilla
/Egrave /Eacute /Ecircumflex /Edieresis /Igrave
/Iacute /Icircumflex /Idieresis /Eth /Ntilde
/Ograve /Oacute /Ocircumflex /Otilde /Odieresis
/multiply /Oslash /Ugrave /Uacute /Ucircumflex
/Udieresis /Yacute /Thorn /germandbls /agrave
/aacute /acircumflex /atilde /adieresis /aring
/ae /ccedilla /egrave /eacute /ecircumflex
/edieresis /igrave /iacute /icircumflex /idieresis
/eth /ntilde /ograve /oacute /ocircumflex
/otilde /odieresis /divide /oslash /ugrave
/uacute /ucircumflex /udieresis /yacute /thorn
/ydieresis
] def
%%EndResource
%FOPBeginFontReencode
/Courier-Oblique findfont
dup length dict begin
  {1 index /FID ne {def} {pop pop} ifelse} forall
  /Encoding WinAnsiEncoding def
  currentdict
end
/Courier-Oblique exch definefont pop
/Courier-BoldOblique findfont
dup length dict begin
  {1 index /FID ne {def} {pop pop} ifelse} forall
  /Encoding WinAnsiEncoding def
  currentdict
end
/Courier-BoldOblique exch definefont pop
/Courier-Bold findfont
dup length dict begin
  {1 index /FID ne {def} {pop pop} ifelse} forall
  /Encoding WinAnsiEncoding def
  currentdict
end
/Courier-Bold exch definefont pop
/Helvetica findfont
dup length dict begin
  {1 index /FID ne {def} {pop pop} ifelse} forall
  /Encoding WinAnsiEncoding def
  currentdict
end
/Helvetica exch definefont pop
/Helvetica-Oblique findfont
dup length dict begin
  {1 index /FID ne {def} {pop pop} ifelse} forall
  /Encoding WinAnsiEncoding def
  currentdict
end
/Helvetica-Oblique exch definefont pop
/Helvetica-Bold findfont
dup length dict begin
  {1 index /FID ne {def} {pop pop} ifelse} forall
  /Encoding WinAnsiEncoding def
  currentdict
end
/Helvetica-Bold exch definefont pop
/Helvetica-BoldOblique findfont
dup length dict begin
  {1 index /FID ne {def} {pop pop} ifelse} forall
  /Encoding WinAnsiEncoding def
  currentdict
end
/Helvetica-BoldOblique exch definefont pop
/Times-Roman findfont
dup length dict begin
  {1 index /FID ne {def} {pop pop} ifelse} forall
  /Encoding WinAnsiEncoding def
  currentdict
end
/Times-Roman exch definefont pop
/Times-Italic findfont
dup length dict begin
  {1 index /FID ne {def} {pop pop} ifelse} forall
  /Encoding WinAnsiEncoding def
  currentdict
end
/Times-Italic exch definefont pop
/Times-Bold findfont
dup length dict begin
  {1 index /FID ne {def} {pop pop} ifelse} forall
  /Encoding WinAnsiEncoding def
  currentdict
end
/Times-Bold exch definefont pop
/Times-BoldItalic findfont
dup length dict begin
  {1 index /FID ne {def} {pop pop} ifelse} forall
  /Encoding WinAnsiEncoding def
  currentdict
end
/Times-BoldItalic exch definefont pop
/Courier findfont
dup length dict begin
  {1 index /FID ne {def} {pop pop} ifelse} forall
  /Encoding WinAnsiEncoding def
  currentdict
end
/Courier exch definefont pop
%FOPEndFontReencode
%%EndProlog
%%Page: 1 1
%%PageBoundingBox: 0 0 662 390
%%BeginPageSetup
[1 0 0 -1 0 390] CT
%%EndPageSetup
GS
[0.75 0 0 0.75 0 0] CT
1 GC
N
0 0 882 520 re
f
GR
GS
[0.75 0 0 0.75 0 0] CT
1 GC
N
0 0 882 520 re
f
GR
GS
[0.75 0 0 0.75 0 0] CT
1 GC
N
115 463 M
798 463 L
798 39 L
115 39 L
cp
f
GR
GS
[0.75 0 0 0.75 0 0] CT
0.149 GC
2 setlinecap
1 LJ
0.667 LW
N
115 463 M
798 463 L
S
GR
GS
[0.75 0 0 0.75 0 0] CT
0.149 GC
2 setlinecap
1 LJ
0.667 LW
N
115 463 M
115 456.17 L
S
GR
GS
[0.75 0 0 0.75 0 0] CT
0.149 GC
2 setlinecap
1 LJ
0.667 LW
N
228.833 463 M
228.833 456.17 L
S
GR
GS
[0.75 0 0 0.75 0 0] CT
0.149 GC
2 setlinecap
1 LJ
0.667 LW
N
342.667 463 M
342.667 456.17 L
S
GR
GS
[0.75 0 0 0.75 0 0] CT
0.149 GC
2 setlinecap
1 LJ
0.667 LW
N
456.5 463 M
456.5 456.17 L
S
GR
GS
[0.75 0 0 0.75 0 0] CT
0.149 GC
2 setlinecap
1 LJ
0.667 LW
N
570.333 463 M
570.333 456.17 L
S
GR
GS
[0.75 0 0 0.75 0 0] CT
0.149 GC
2 setlinecap
1 LJ
0.667 LW
N
684.167 463 M
684.167 456.17 L
S
GR
GS
[0.75 0 0 0.75 0 0] CT
0.149 GC
2 setlinecap
1 LJ
0.667 LW
N
798 463 M
798 456.17 L
S
GR
GS
[0.75 0 0 0.75 86.25 351.25001] CT
0.149 GC
/Helvetica 13.333 F
GS
[1 0 0 1 0 0] CT
-4 13 moveto 
1 -1 scale
(0) t 
GR
GR
GS
[0.75 0 0 0.75 171.62501 351.25001] CT
0.149 GC
/Helvetica 13.333 F
GS
[1 0 0 1 0 0] CT
-9.5 13 moveto 
1 -1 scale
(0.5) t 
GR
GR
GS
[0.75 0 0 0.75 257.00002 351.25001] CT
0.149 GC
/Helvetica 13.333 F
GS
[1 0 0 1 0 0] CT
-4 13 moveto 
1 -1 scale
(1) t 
GR
GR
GS
[0.75 0 0 0.75 342.375 351.25001] CT
0.149 GC
/Helvetica 13.333 F
GS
[1 0 0 1 0 0] CT
-9.5 13 moveto 
1 -1 scale
(1.5) t 
GR
GR
GS
[0.75 0 0 0.75 427.75003 351.25001] CT
0.149 GC
/Helvetica 13.333 F
GS
[1 0 0 1 0 0] CT
-4 13 moveto 
1 -1 scale
(2) t 
GR
GR
GS
[0.75 0 0 0.75 513.12497 351.25001] CT
0.149 GC
/Helvetica 13.333 F
GS
[1 0 0 1 0 0] CT
-9.5 13 moveto 
1 -1 scale
(2.5) t 
GR
GR
GS
[0.75 0 0 0.75 598.5 351.25001] CT
0.149 GC
/Helvetica 13.333 F
GS
[1 0 0 1 0 0] CT
-4 13 moveto 
1 -1 scale
(3) t 
GR
GR
GS
[0.75 0 0 0.75 342.37525 364.99999] CT
0.149 GC
/Helvetica 14.667 F
GS
[1 0 0 1 0 0] CT
-100 14 moveto 
1 -1 scale
(Deflection on slit surface [mm]) t 
GR
GR
GS
[0.75 0 0 0.75 572.25 377.25] CT
0.149 GC
N
1.906 -0.375 M
1.906 -0.469 1.969 -0.563 QT
4.672 -3.25 L
1.969 -5.953 L
1.906 -6.016 1.906 -6.125 QT
1.906 -6.219 1.984 -6.305 QT
2.063 -6.391 2.172 -6.391 QT
2.266 -6.391 2.375 -6.297 QT
5.063 -3.609 L
7.734 -6.297 L
7.844 -6.391 7.922 -6.391 QT
8.031 -6.391 8.109 -6.313 QT
8.188 -6.234 8.188 -6.125 QT
8.188 -6.016 8.125 -5.953 QT
5.422 -3.25 L
8.125 -0.563 L
8.188 -0.469 8.188 -0.375 QT
8.188 -0.266 8.109 -0.188 QT
8.031 -0.109 7.922 -0.109 QT
7.828 -0.109 7.734 -0.203 QT
5.063 -2.891 L
2.375 -0.203 L
2.266 -0.109 2.172 -0.109 QT
2.063 -0.109 1.984 -0.195 QT
1.906 -0.281 1.906 -0.375 QT
cp
f
GR
GS
[0.75 0 0 0.75 580.5 377.25] CT
0.149 GC
/Helvetica 13.333 F
GS
[1 0 0 1 0 0] CT
0 0 moveto 
1 -1 scale
(10) t 
GR
GR
GS
[0.75 0 0 0.75 591.75 372.75] CT
0.149 GC
/Helvetica 10.667 F
GS
[1 0 0 1 0 0] CT
0 0 moveto 
1 -1 scale
(-3) t 
GR
GR
GS
[0.75 0 0 0.75 0 0] CT
0.149 GC
2 setlinecap
1 LJ
0.667 LW
N
115 463 M
115 39 L
S
GR
GS
[0.75 0 0 0.75 0 0] CT
0.149 GC
2 setlinecap
1 LJ
0.667 LW
N
115 463 M
121.83 463 L
S
GR
GS
[0.75 0 0 0.75 0 0] CT
0.149 GC
2 setlinecap
1 LJ
0.667 LW
N
115 378.2 M
121.83 378.2 L
S
GR
GS
[0.75 0 0 0.75 0 0] CT
0.149 GC
2 setlinecap
1 LJ
0.667 LW
N
115 293.4 M
121.83 293.4 L
S
GR
GS
[0.75 0 0 0.75 0 0] CT
0.149 GC
2 setlinecap
1 LJ
0.667 LW
N
115 208.6 M
121.83 208.6 L
S
GR
GS
[0.75 0 0 0.75 0 0] CT
0.149 GC
2 setlinecap
1 LJ
0.667 LW
N
115 123.8 M
121.83 123.8 L
S
GR
GS
[0.75 0 0 0.75 0 0] CT
0.149 GC
2 setlinecap
1 LJ
0.667 LW
N
115 39 M
121.83 39 L
S
GR
GS
[0.75 0 0 0.75 82.25 347.25] CT
0.149 GC
/Helvetica 13.333 F
GS
[1 0 0 1 0 0] CT
-8 4.5 moveto 
1 -1 scale
(0) t 
GR
GR
GS
[0.75 0 0 0.75 82.25 283.65001] CT
0.149 GC
/Helvetica 13.333 F
GS
[1 0 0 1 0 0] CT
-19 4.5 moveto 
1 -1 scale
(0.5) t 
GR
GR
GS
[0.75 0 0 0.75 82.25 220.05] CT
0.149 GC
/Helvetica 13.333 F
GS
[1 0 0 1 0 0] CT
-8 4.5 moveto 
1 -1 scale
(1) t 
GR
GR
GS
[0.75 0 0 0.75 82.25 156.45] CT
0.149 GC
/Helvetica 13.333 F
GS
[1 0 0 1 0 0] CT
-19 4.5 moveto 
1 -1 scale
(1.5) t 
GR
GR
GS
[0.75 0 0 0.75 82.25 92.85] CT
0.149 GC
/Helvetica 13.333 F
GS
[1 0 0 1 0 0] CT
-8 4.5 moveto 
1 -1 scale
(2) t 
GR
GR
GS
[0.75 0 0 0.75 82.25 29.25] CT
0.149 GC
/Helvetica 13.333 F
GS
[1 0 0 1 0 0] CT
-19 4.5 moveto 
1 -1 scale
(2.5) t 
GR
GR
GS
[0 -0.75 0.75 0 65 188.24984] CT
0.149 GC
/Helvetica 14.667 F
GS
[1 0 0 1 0 0] CT
-87 -4 moveto 
1 -1 scale
(Required opening force [N]) t 
GR
GR
GS
[0.75 0 0 0.75 86.25 26.25] CT
0.149 GC
N
/f-838442823{1.906 -0.375 M
1.906 -0.469 1.969 -0.563 QT
4.672 -3.25 L
1.969 -5.953 L
1.906 -6.016 1.906 -6.125 QT
1.906 -6.219 1.984 -6.305 QT
2.063 -6.391 2.172 -6.391 QT
2.266 -6.391 2.375 -6.297 QT
5.063 -3.609 L
7.734 -6.297 L
7.844 -6.391 7.922 -6.391 QT
8.031 -6.391 8.109 -6.313 QT
8.188 -6.234 8.188 -6.125 QT
8.188 -6.016 8.125 -5.953 QT
5.422 -3.25 L
8.125 -0.563 L
8.188 -0.469 8.188 -0.375 QT
8.188 -0.266 8.109 -0.188 QT
8.031 -0.109 7.922 -0.109 QT
7.828 -0.109 7.734 -0.203 QT
5.063 -2.891 L
2.375 -0.203 L
2.266 -0.109 2.172 -0.109 QT
2.063 -0.109 1.984 -0.195 QT
1.906 -0.281 1.906 -0.375 QT
cp}def
f-838442823
f
GR
GS
[0.75 0 0 0.75 94.5 26.25] CT
0.149 GC
/Helvetica 13.333 F
GS
[1 0 0 1 0 0] CT
0 0 moveto 
1 -1 scale
(10) t 
GR
GR
GS
[0.75 0 0 0.75 105.75 21.75] CT
0.149 GC
/Helvetica 10.667 F
GS
[1 0 0 1 0 0] CT
0 0 moveto 
1 -1 scale
(6) t 
GR
GR
GS
[0.75 0 0 0.75 342.37532 27.18751] CT
/Helvetica-Bold 14.667 F
GS
[1 0 0 1 0 0] CT
-197.5 -4 moveto 
1 -1 scale
(Reaction force on slit surface as a function of the deflection) t 
GR
GR
GS
[0.75 0 0 0.75 0 0] CT
0 0.447 0.741 RC
1 LJ
0.667 LW
N
115 463 M
117.284 461.733 L
119.569 460.466 L
121.853 459.199 L
124.137 457.932 L
126.421 456.666 L
128.706 455.399 L
130.99 454.132 L
133.274 452.865 L
135.559 451.598 L
137.843 450.331 L
140.127 449.064 L
142.411 447.797 L
144.696 446.531 L
146.98 445.264 L
149.264 443.997 L
151.548 442.73 L
153.833 441.463 L
156.117 440.196 L
158.401 438.929 L
160.686 437.662 L
162.97 436.396 L
165.254 435.129 L
167.538 433.862 L
169.823 432.595 L
172.107 431.328 L
174.391 430.061 L
176.676 428.794 L
178.96 427.527 L
181.244 426.261 L
183.528 424.994 L
185.813 423.727 L
188.097 422.46 L
190.381 421.193 L
192.666 419.926 L
194.95 418.659 L
197.234 417.392 L
199.518 416.126 L
201.803 414.859 L
204.087 413.592 L
206.371 412.325 L
208.656 411.058 L
210.94 409.791 L
213.224 408.524 L
215.508 407.257 L
217.793 405.991 L
220.077 404.724 L
222.361 403.457 L
224.645 402.19 L
226.93 400.923 L
229.214 399.656 L
231.498 398.389 L
233.783 397.122 L
236.067 395.856 L
238.351 394.589 L
240.635 393.322 L
242.92 392.055 L
245.204 390.788 L
247.488 389.521 L
249.773 388.254 L
252.057 386.987 L
254.341 385.721 L
256.625 384.454 L
258.91 383.187 L
261.194 381.92 L
263.478 380.653 L
265.763 379.386 L
268.047 378.119 L
270.331 376.852 L
272.615 375.586 L
274.9 374.319 L
277.184 373.052 L
279.468 371.785 L
281.753 370.518 L
284.037 369.251 L
286.321 367.984 L
288.605 366.717 L
290.89 365.451 L
293.174 364.184 L
295.458 362.917 L
297.742 361.65 L
300.027 360.383 L
302.311 359.116 L
304.595 357.849 L
306.88 356.582 L
309.164 355.316 L
311.448 354.049 L
313.732 352.782 L
316.017 351.515 L
318.301 350.248 L
320.585 348.981 L
322.87 347.714 L
325.154 346.447 L
327.438 345.181 L
329.722 343.914 L
332.007 342.647 L
334.291 341.38 L
336.575 340.113 L
338.86 338.846 L
341.144 337.579 L
343.428 336.312 L
345.712 335.046 L
347.997 333.779 L
350.281 332.512 L
352.565 331.245 L
354.85 329.978 L
357.134 328.711 L
359.418 327.444 L
361.702 326.177 L
363.987 324.911 L
366.271 323.644 L
368.555 322.377 L
370.839 321.11 L
373.124 319.843 L
375.408 318.576 L
377.692 317.309 L
379.977 316.042 L
382.261 314.776 L
384.545 313.509 L
386.829 312.242 L
389.114 310.975 L
391.398 309.708 L
393.682 308.441 L
395.967 307.174 L
398.251 305.907 L
400.535 304.641 L
402.819 303.374 L
405.104 302.107 L
407.388 300.84 L
409.672 299.573 L
411.957 298.306 L
414.241 297.039 L
416.525 295.772 L
418.809 294.505 L
421.094 293.239 L
423.378 291.972 L
425.662 290.705 L
427.947 289.438 L
430.231 288.171 L
432.515 286.904 L
434.799 285.637 L
437.084 284.37 L
439.368 283.104 L
441.652 281.837 L
443.936 280.57 L
446.221 279.303 L
448.505 278.036 L
450.789 276.769 L
453.074 275.502 L
455.358 274.235 L
457.642 272.969 L
459.926 271.702 L
462.211 270.435 L
464.495 269.168 L
466.779 267.901 L
469.064 266.634 L
471.348 265.367 L
473.632 264.1 L
475.916 262.834 L
478.201 261.567 L
480.485 260.3 L
482.769 259.033 L
485.054 257.766 L
487.338 256.499 L
489.622 255.232 L
491.906 253.965 L
494.191 252.699 L
496.475 251.432 L
498.759 250.165 L
501.043 248.898 L
503.328 247.631 L
505.612 246.364 L
507.896 245.097 L
510.181 243.83 L
512.465 242.564 L
514.749 241.297 L
517.033 240.03 L
519.318 238.763 L
521.602 237.496 L
523.886 236.229 L
526.171 234.962 L
528.455 233.695 L
530.739 232.429 L
533.023 231.162 L
535.308 229.895 L
537.592 228.628 L
539.876 227.361 L
542.161 226.094 L
544.445 224.827 L
546.729 223.56 L
549.013 222.294 L
551.298 221.027 L
553.582 219.76 L
555.866 218.493 L
558.151 217.226 L
560.435 215.959 L
562.719 214.692 L
565.003 213.425 L
567.288 212.159 L
569.572 210.892 L
571.856 209.625 L
574.141 208.358 L
576.425 207.091 L
578.709 205.824 L
580.993 204.557 L
583.278 203.29 L
585.562 202.024 L
587.846 200.757 L
590.13 199.49 L
592.415 198.223 L
594.699 196.956 L
596.983 195.689 L
599.268 194.422 L
601.552 193.155 L
603.836 191.889 L
606.12 190.622 L
608.405 189.355 L
610.689 188.088 L
612.973 186.821 L
615.258 185.554 L
617.542 184.287 L
619.826 183.02 L
622.11 181.754 L
624.395 180.487 L
626.679 179.22 L
628.963 177.953 L
631.247 176.686 L
633.532 175.419 L
635.816 174.152 L
638.1 172.885 L
640.385 171.619 L
642.669 170.352 L
644.953 169.085 L
647.237 167.818 L
649.522 166.551 L
651.806 165.284 L
654.09 164.017 L
656.375 162.75 L
658.659 161.484 L
660.943 160.217 L
663.227 158.95 L
665.512 157.683 L
667.796 156.416 L
670.08 155.149 L
672.365 153.882 L
674.649 152.615 L
676.933 151.349 L
679.217 150.082 L
681.502 148.815 L
683.786 147.548 L
686.07 146.281 L
688.355 145.014 L
690.639 143.747 L
692.923 142.48 L
695.207 141.214 L
697.492 139.947 L
699.776 138.68 L
702.06 137.413 L
704.344 136.146 L
706.629 134.879 L
708.913 133.612 L
711.197 132.345 L
713.482 131.079 L
715.766 129.812 L
718.05 128.545 L
720.334 127.278 L
722.619 126.011 L
724.903 124.744 L
727.187 123.477 L
729.472 122.21 L
731.756 120.943 L
734.04 119.677 L
736.324 118.41 L
738.609 117.143 L
740.893 115.876 L
743.177 114.609 L
745.462 113.342 L
747.746 112.075 L
750.03 110.808 L
752.314 109.542 L
754.599 108.275 L
756.883 107.008 L
759.167 105.741 L
761.452 104.474 L
763.736 103.207 L
766.02 101.94 L
768.304 100.673 L
770.589 99.407 L
772.873 98.14 L
775.157 96.873 L
777.441 95.606 L
779.726 94.339 L
782.01 93.072 L
784.294 91.805 L
786.579 90.538 L
788.863 89.272 L
791.147 88.005 L
793.431 86.738 L
795.716 85.471 L
798 84.204 L
S
GR
GS
[0.75 0 0 0.75 0 0] CT
0.851 0.325 0.098 RC
1 LJ
0.667 LW
N
115 463 M
117.284 461.733 L
119.569 460.466 L
121.853 459.199 L
124.137 457.932 L
126.421 456.666 L
128.706 455.399 L
130.99 454.132 L
133.274 452.865 L
135.559 451.598 L
137.843 450.331 L
140.127 449.064 L
142.411 447.797 L
144.696 446.531 L
146.98 445.264 L
149.264 443.997 L
151.548 442.73 L
153.833 441.463 L
156.117 440.196 L
158.401 438.929 L
160.686 437.662 L
162.97 436.396 L
165.254 435.129 L
167.538 433.862 L
169.823 432.595 L
172.107 431.328 L
174.391 430.061 L
176.676 428.794 L
178.96 427.527 L
181.244 426.261 L
183.528 424.994 L
185.813 423.727 L
188.097 422.46 L
190.381 421.193 L
192.666 419.926 L
194.95 418.659 L
197.234 417.392 L
199.518 416.126 L
201.803 414.859 L
204.087 413.592 L
206.371 412.325 L
208.656 411.058 L
210.94 409.791 L
213.224 408.524 L
215.508 407.257 L
217.793 405.991 L
220.077 404.724 L
222.361 403.457 L
224.645 402.19 L
226.93 400.923 L
229.214 399.656 L
231.498 398.389 L
233.783 397.122 L
236.067 395.856 L
238.351 394.589 L
240.635 393.322 L
242.92 392.055 L
245.204 390.788 L
247.488 389.521 L
249.773 388.254 L
252.057 386.987 L
254.341 385.721 L
256.625 384.454 L
258.91 383.187 L
261.194 381.92 L
263.478 380.653 L
265.763 379.386 L
268.047 378.119 L
270.331 376.852 L
272.615 375.586 L
274.9 374.319 L
277.184 373.052 L
279.468 371.785 L
281.753 370.518 L
284.037 369.251 L
286.321 367.984 L
288.605 366.717 L
290.89 365.451 L
293.174 364.184 L
295.458 362.917 L
297.742 361.65 L
300.027 360.383 L
302.311 359.116 L
304.595 357.849 L
306.88 356.582 L
309.164 355.316 L
311.448 354.049 L
313.732 352.782 L
316.017 351.515 L
318.301 350.248 L
320.585 348.981 L
322.87 347.714 L
325.154 346.447 L
327.438 345.181 L
329.722 343.914 L
332.007 342.647 L
334.291 341.38 L
336.575 340.113 L
338.86 338.846 L
341.144 337.579 L
343.428 336.312 L
345.712 335.046 L
347.997 333.779 L
350.281 332.512 L
352.565 331.245 L
354.85 329.978 L
357.134 328.711 L
359.418 327.444 L
361.702 326.177 L
363.987 324.911 L
366.271 323.644 L
368.555 322.377 L
370.839 321.11 L
373.124 319.843 L
375.408 318.576 L
377.692 317.309 L
379.977 316.042 L
382.261 314.776 L
384.545 313.509 L
386.829 312.252 L
389.114 311.019 L
391.398 309.797 L
393.682 308.582 L
395.967 307.376 L
398.251 306.175 L
400.535 304.98 L
402.819 303.788 L
405.104 302.602 L
407.388 301.417 L
409.672 300.238 L
411.957 299.062 L
414.241 297.886 L
416.525 296.716 L
418.809 295.563 L
421.094 294.441 L
423.378 293.333 L
425.662 292.243 L
427.947 291.162 L
430.231 290.087 L
432.515 289.019 L
434.799 287.963 L
437.084 286.911 L
439.368 285.867 L
441.652 284.827 L
443.936 283.788 L
446.221 282.758 L
448.505 281.737 L
450.789 280.716 L
453.074 279.697 L
455.358 278.683 L
457.642 277.675 L
459.926 276.669 L
462.211 275.665 L
464.495 274.666 L
466.779 273.671 L
469.064 272.68 L
471.348 271.689 L
473.632 270.698 L
475.916 269.711 L
478.201 268.727 L
480.485 267.758 L
482.769 266.807 L
485.054 265.864 L
487.338 264.927 L
489.622 263.996 L
491.906 263.071 L
494.191 262.154 L
496.475 261.242 L
498.759 260.333 L
501.043 259.432 L
503.328 258.532 L
505.612 257.634 L
507.896 256.741 L
510.181 255.853 L
512.465 254.967 L
514.749 254.084 L
517.033 253.204 L
519.318 252.329 L
521.602 251.455 L
523.886 250.601 L
526.171 249.762 L
528.455 248.937 L
530.739 248.122 L
533.023 247.317 L
535.308 246.528 L
537.592 245.75 L
539.876 244.986 L
542.161 244.226 L
544.445 243.473 L
546.729 242.729 L
549.013 241.992 L
551.298 241.26 L
553.582 240.531 L
555.866 239.805 L
558.151 239.085 L
560.435 238.382 L
562.719 237.697 L
565.003 237.017 L
567.288 236.347 L
569.572 235.683 L
571.856 235.026 L
574.141 234.381 L
576.425 233.737 L
578.709 233.094 L
580.993 232.456 L
583.278 231.822 L
585.562 231.192 L
587.846 230.566 L
590.13 229.944 L
592.415 229.329 L
594.699 228.72 L
596.983 228.112 L
599.268 227.509 L
601.552 226.927 L
603.836 226.36 L
606.12 225.801 L
608.405 225.259 L
610.689 224.721 L
612.973 224.187 L
615.258 223.663 L
617.542 223.145 L
619.826 222.628 L
622.11 222.112 L
624.395 221.604 L
626.679 221.101 L
628.963 220.605 L
631.247 220.111 L
633.532 219.623 L
635.816 219.147 L
638.1 218.684 L
640.385 218.223 L
642.669 217.773 L
644.953 217.327 L
647.237 216.885 L
649.522 216.444 L
651.806 216.008 L
654.09 215.576 L
656.375 215.149 L
658.659 214.732 L
660.943 214.327 L
663.227 213.935 L
665.512 213.548 L
667.796 213.167 L
670.08 212.794 L
672.365 212.424 L
674.649 212.056 L
676.933 211.69 L
679.217 211.328 L
681.502 210.971 L
683.786 210.622 L
686.07 210.274 L
688.355 209.928 L
690.639 209.594 L
692.923 209.268 L
695.207 208.949 L
697.492 208.632 L
699.776 208.317 L
702.06 208.008 L
704.344 207.701 L
706.629 207.397 L
708.913 207.093 L
711.197 206.791 L
713.482 206.49 L
715.766 206.193 L
718.05 205.9 L
720.334 205.612 L
722.619 205.324 L
724.903 205.04 L
727.187 204.758 L
729.472 204.476 L
731.756 204.195 L
734.04 203.917 L
736.324 203.641 L
738.609 203.365 L
740.893 203.096 L
743.177 202.834 L
745.462 202.576 L
747.746 202.326 L
750.03 202.079 L
752.314 201.832 L
754.599 201.587 L
756.883 201.345 L
759.167 201.105 L
761.452 200.872 L
763.736 200.641 L
766.02 200.41 L
768.304 200.18 L
770.589 199.951 L
772.873 199.728 L
775.157 199.513 L
777.441 199.299 L
779.726 199.087 L
782.01 198.882 L
784.294 198.678 L
786.579 198.475 L
788.863 198.272 L
791.147 198.073 L
793.431 197.875 L
795.716 197.679 L
798 197.485 L
S
GR
GS
[0.75 0 0 0.75 0 0] CT
0.929 0.694 0.125 RC
1 LJ
0.667 LW
N
115 463 M
117.284 461.733 L
119.569 460.466 L
121.853 459.199 L
124.137 457.932 L
126.421 456.666 L
128.706 455.399 L
130.99 454.132 L
133.274 452.865 L
135.559 451.598 L
137.843 450.331 L
140.127 449.064 L
142.411 447.797 L
144.696 446.531 L
146.98 445.264 L
149.264 443.997 L
151.548 442.73 L
153.833 441.463 L
156.117 440.196 L
158.401 438.929 L
160.686 437.662 L
162.97 436.396 L
165.254 435.129 L
167.538 433.862 L
169.823 432.595 L
172.107 431.328 L
174.391 430.061 L
176.676 428.794 L
178.96 427.527 L
181.244 426.261 L
183.528 424.994 L
185.813 423.727 L
188.097 422.46 L
190.381 421.193 L
192.666 419.926 L
194.95 418.659 L
197.234 417.392 L
199.518 416.126 L
201.803 414.859 L
204.087 413.592 L
206.371 412.325 L
208.656 411.058 L
210.94 409.791 L
213.224 408.524 L
215.508 407.257 L
217.793 405.991 L
220.077 404.724 L
222.361 403.457 L
224.645 402.19 L
226.93 400.923 L
229.214 399.656 L
231.498 398.389 L
233.783 397.122 L
236.067 395.856 L
238.351 394.589 L
240.635 393.322 L
242.92 392.055 L
245.204 390.788 L
247.488 389.521 L
249.773 388.254 L
252.057 386.987 L
254.341 385.721 L
256.625 384.454 L
258.91 383.187 L
261.194 381.92 L
263.478 380.653 L
265.763 379.386 L
268.047 378.119 L
270.331 376.852 L
272.615 375.586 L
274.9 374.319 L
277.184 373.052 L
279.468 371.785 L
281.753 370.518 L
284.037 369.251 L
286.321 367.984 L
288.605 366.717 L
290.89 365.451 L
293.174 364.184 L
295.458 362.917 L
297.742 361.65 L
300.027 360.383 L
302.311 359.116 L
304.595 357.849 L
306.88 356.582 L
309.164 355.316 L
311.448 354.049 L
313.732 352.782 L
316.017 351.515 L
318.301 350.248 L
320.585 348.981 L
322.87 347.714 L
325.154 346.447 L
327.438 345.181 L
329.722 343.914 L
332.007 342.647 L
334.291 341.38 L
336.575 340.113 L
338.86 338.846 L
341.144 337.579 L
343.428 336.312 L
345.712 335.046 L
347.997 333.779 L
350.281 332.512 L
352.565 331.245 L
354.85 329.978 L
357.134 328.711 L
359.418 327.444 L
361.702 326.177 L
363.987 324.911 L
366.271 323.644 L
368.555 322.377 L
370.839 321.11 L
373.124 319.843 L
375.408 318.576 L
377.692 317.309 L
379.977 316.042 L
382.261 314.776 L
384.545 313.509 L
386.829 312.254 L
389.114 311.018 L
391.398 309.796 L
393.682 308.582 L
395.967 307.376 L
398.251 306.175 L
400.535 304.979 L
402.819 303.788 L
405.104 302.602 L
407.388 301.417 L
409.672 300.238 L
411.957 299.061 L
414.241 297.886 L
416.525 296.716 L
418.809 295.566 L
421.094 294.443 L
423.378 293.332 L
425.662 292.241 L
427.947 291.16 L
430.231 290.086 L
432.515 289.019 L
434.799 287.963 L
437.084 286.911 L
439.368 285.867 L
441.652 284.827 L
443.936 283.789 L
446.221 282.758 L
448.505 281.737 L
450.789 280.716 L
453.074 279.697 L
455.358 278.683 L
457.642 277.675 L
459.926 276.669 L
462.211 275.665 L
464.495 274.666 L
466.779 273.671 L
469.064 272.68 L
471.348 271.689 L
473.632 270.698 L
475.916 269.711 L
478.201 268.727 L
480.485 267.761 L
482.769 266.81 L
485.054 265.863 L
487.338 264.925 L
489.622 263.994 L
491.906 263.07 L
494.191 262.152 L
496.475 261.241 L
498.759 260.333 L
501.043 259.431 L
503.328 258.532 L
505.612 257.633 L
507.896 256.741 L
510.181 255.853 L
512.465 254.966 L
514.749 254.083 L
517.033 253.204 L
519.318 252.329 L
521.602 251.455 L
523.886 250.606 L
526.171 249.765 L
528.455 248.937 L
530.739 248.12 L
533.023 247.314 L
535.308 246.529 L
537.592 245.749 L
539.876 244.984 L
542.161 244.224 L
544.445 243.472 L
546.729 242.727 L
549.013 241.99 L
551.298 241.258 L
553.582 240.53 L
555.866 239.804 L
558.151 239.084 L
560.435 238.382 L
562.719 237.7 L
565.003 237.02 L
567.288 236.35 L
569.572 235.683 L
571.856 235.026 L
574.141 234.38 L
576.425 233.736 L
578.709 233.094 L
580.993 232.456 L
583.278 231.822 L
585.562 231.19 L
587.846 230.565 L
590.13 229.943 L
592.415 229.328 L
594.699 228.719 L
596.983 228.111 L
599.268 227.508 L
601.552 226.93 L
603.836 226.364 L
606.12 225.805 L
608.405 225.261 L
610.689 224.721 L
612.973 224.187 L
615.258 223.662 L
617.542 223.143 L
619.826 222.627 L
622.11 222.112 L
624.395 221.601 L
626.679 221.098 L
628.963 220.602 L
631.247 220.108 L
633.532 219.622 L
635.816 219.148 L
638.1 218.684 L
640.385 218.224 L
642.669 217.773 L
644.953 217.329 L
647.237 216.885 L
649.522 216.444 L
651.806 216.011 L
654.09 215.578 L
656.375 215.149 L
658.659 214.735 L
660.943 214.33 L
663.227 213.94 L
665.512 213.552 L
667.796 213.169 L
670.08 212.796 L
672.365 212.426 L
674.649 212.057 L
676.933 211.69 L
679.217 211.328 L
681.502 210.97 L
683.786 210.619 L
686.07 210.272 L
688.355 209.924 L
690.639 209.593 L
692.923 209.267 L
695.207 208.948 L
697.492 208.632 L
699.776 208.317 L
702.06 208.008 L
704.344 207.703 L
706.629 207.399 L
708.913 207.095 L
711.197 206.791 L
713.482 206.488 L
715.766 206.193 L
718.05 205.898 L
720.334 205.611 L
722.619 205.323 L
724.903 205.038 L
727.187 204.755 L
729.472 204.474 L
731.756 204.194 L
734.04 203.917 L
736.324 203.641 L
738.609 203.365 L
740.893 203.093 L
743.177 202.835 L
745.462 202.577 L
747.746 202.324 L
750.03 202.076 L
752.314 201.831 L
754.599 201.587 L
756.883 201.346 L
759.167 201.106 L
761.452 200.871 L
763.736 200.64 L
766.02 200.409 L
768.304 200.179 L
770.589 199.949 L
772.873 199.731 L
775.157 199.515 L
777.441 199.302 L
779.726 199.09 L
782.01 198.885 L
784.294 198.681 L
786.579 198.476 L
788.863 198.272 L
791.147 198.074 L
793.431 197.875 L
795.716 197.68 L
798 197.487 L
S
GR
GS
[0.75 0 0 0.75 0 0] CT
0.494 0.184 0.557 RC
1 LJ
0.667 LW
N
115 463 M
121.83 459.247 L
128.66 455.495 L
135.49 451.742 L
142.32 447.99 L
149.15 444.237 L
155.98 440.485 L
162.81 436.732 L
169.64 432.98 L
176.47 429.227 L
183.3 425.475 L
190.13 421.722 L
196.96 417.97 L
203.79 414.217 L
210.62 410.465 L
217.45 406.712 L
224.28 402.959 L
231.11 399.207 L
237.94 395.454 L
244.77 391.702 L
251.6 387.949 L
258.43 384.197 L
265.26 380.444 L
272.09 376.692 L
278.92 372.939 L
285.75 369.187 L
292.58 365.434 L
299.41 361.681 L
306.24 357.929 L
313.07 354.176 L
319.9 350.424 L
326.73 346.671 L
333.56 342.919 L
340.39 339.166 L
347.22 335.414 L
354.05 331.661 L
360.88 327.909 L
367.71 324.156 L
374.54 320.404 L
381.37 316.651 L
388.2 312.962 L
395.03 309.273 L
401.86 305.712 L
408.69 302.192 L
415.52 298.706 L
422.35 295.399 L
429.18 291.704 L
436.01 288.312 L
442.84 286.616 L
449.67 283.224 L
456.5 279.832 L
463.33 276.44 L
470.16 274.744 L
476.99 271.352 L
483.82 267.96 L
490.65 266.264 L
497.48 262.872 L
504.31 259.48 L
511.14 257.784 L
517.97 254.392 L
524.8 252.696 L
531.63 249.304 L
538.46 247.608 L
545.29 245.912 L
552.12 242.52 L
558.95 240.824 L
565.78 239.128 L
572.61 237.432 L
579.44 235.736 L
586.27 234.04 L
593.1 232.344 L
599.93 230.648 L
606.76 228.952 L
613.59 227.256 L
620.42 225.56 L
627.25 223.864 L
634.08 222.168 L
640.91 220.472 L
647.74 218.776 L
654.57 218.776 L
661.4 217.08 L
668.23 215.384 L
675.06 215.384 L
681.89 213.688 L
688.72 213.688 L
695.55 211.992 L
702.38 211.992 L
709.21 210.296 L
716.04 210.296 L
722.87 208.6 L
729.7 208.6 L
736.53 206.904 L
743.36 206.904 L
750.19 205.208 L
757.02 205.208 L
763.85 205.208 L
770.68 203.512 L
777.51 203.512 L
784.34 203.512 L
791.17 201.816 L
798 201.816 L
S
GR
GS
[0.75 0 0 0.75 0 0] CT
1 GC
N
787 100 M
787 50 L
695 50 L
695 100 L
cp
f
GR
GS
[0.75 0 0 0.75 556.5 44.625] CT
/Helvetica 12 F
GS
[1 0 0 1 0 0] CT
0 4.5 moveto 
1 -1 scale
(Elastic) t 
GR
GR
GS
[0.75 0 0 0.75 0 0] CT
0 0.447 0.741 RC
1 LJ
0.667 LW
N
699 59.5 M
739 59.5 L
S
GR
GS
[0.75 0 0 0.75 556.5 56.25] CT
/Helvetica 12 F
GS
[1 0 0 1 0 0] CT
0 4.5 moveto 
1 -1 scale
(Hencky) t 
GR
GR
GS
[0.75 0 0 0.75 0 0] CT
0.851 0.325 0.098 RC
1 LJ
0.667 LW
N
699 75 M
739 75 L
S
GR
GS
[0.75 0 0 0.75 556.5 67.875] CT
/Helvetica 12 F
GS
[1 0 0 1 0 0] CT
0 4.5 moveto 
1 -1 scale
(Abaqus) t 
GR
GR
GS
[0.75 0 0 0.75 0 0] CT
0.929 0.694 0.125 RC
1 LJ
0.667 LW
N
699 90.5 M
739 90.5 L
S
GR
GS
[0.75 0 0 0.75 0 0] CT
0.149 GC
10.0 ML
0.667 LW
N
695 100 M
695 50 L
787 50 L
787 100 L
cp
S
GR
%%Trailer
%%Pages: 1
%%EOF
