%!PS-Adobe-3.0 EPSF-3.0
%%Creator: (MATLAB, The Mathworks, Inc. Version 9.5.0.944444 \(R2018b\). Operating System: Linux)
%%Title: imgs/uniaxialstraintest.eps
%%CreationDate: 2019-02-24T16:45:51
%%Pages: (atend)
%%BoundingBox:    18     2   387   296
%%LanguageLevel: 3
%%EndComments
%%BeginProlog
%%BeginResource: procset (Apache XML Graphics Std ProcSet) 1.2 0
%%Version: 1.2 0
%%Copyright: (Copyright 2001-2003,2010 The Apache Software Foundation. License terms: http://www.apache.org/licenses/LICENSE-2.0)
/bd{bind def}bind def
/ld{load def}bd
/GR/grestore ld
/GS/gsave ld
/RM/rmoveto ld
/C/curveto ld
/t/show ld
/L/lineto ld
/ML/setmiterlimit ld
/CT/concat ld
/f/fill ld
/N/newpath ld
/S/stroke ld
/CC/setcmykcolor ld
/A/ashow ld
/cp/closepath ld
/RC/setrgbcolor ld
/LJ/setlinejoin ld
/GC/setgray ld
/LW/setlinewidth ld
/M/moveto ld
/re {4 2 roll M
1 index 0 rlineto
0 exch rlineto
neg 0 rlineto
cp } bd
/_ctm matrix def
/_tm matrix def
/BT { _ctm currentmatrix pop matrix _tm copy pop 0 0 moveto } bd
/ET { _ctm setmatrix } bd
/iTm { _ctm setmatrix _tm concat } bd
/Tm { _tm astore pop iTm 0 0 moveto } bd
/ux 0.0 def
/uy 0.0 def
/F {
  /Tp exch def
  /Tf exch def
  Tf findfont Tp scalefont setfont
  /cf Tf def  /cs Tp def
} bd
/ULS {currentpoint /uy exch def /ux exch def} bd
/ULE {
  /Tcx currentpoint pop def
  gsave
  newpath
  cf findfont cs scalefont dup
  /FontMatrix get 0 get /Ts exch def /FontInfo get dup
  /UnderlinePosition get Ts mul /To exch def
  /UnderlineThickness get Ts mul /Tt exch def
  ux uy To add moveto  Tcx uy To add lineto
  Tt setlinewidth stroke
  grestore
} bd
/OLE {
  /Tcx currentpoint pop def
  gsave
  newpath
  cf findfont cs scalefont dup
  /FontMatrix get 0 get /Ts exch def /FontInfo get dup
  /UnderlinePosition get Ts mul /To exch def
  /UnderlineThickness get Ts mul /Tt exch def
  ux uy To add cs add moveto Tcx uy To add cs add lineto
  Tt setlinewidth stroke
  grestore
} bd
/SOE {
  /Tcx currentpoint pop def
  gsave
  newpath
  cf findfont cs scalefont dup
  /FontMatrix get 0 get /Ts exch def /FontInfo get dup
  /UnderlinePosition get Ts mul /To exch def
  /UnderlineThickness get Ts mul /Tt exch def
  ux uy To add cs 10 mul 26 idiv add moveto Tcx uy To add cs 10 mul 26 idiv add lineto
  Tt setlinewidth stroke
  grestore
} bd
/QT {
/Y22 exch store
/X22 exch store
/Y21 exch store
/X21 exch store
currentpoint
/Y21 load 2 mul add 3 div exch
/X21 load 2 mul add 3 div exch
/X21 load 2 mul /X22 load add 3 div
/Y21 load 2 mul /Y22 load add 3 div
/X22 load /Y22 load curveto
} bd
/SSPD {
dup length /d exch dict def
{
/v exch def
/k exch def
currentpagedevice k known {
/cpdv currentpagedevice k get def
v cpdv ne {
/upd false def
/nullv v type /nulltype eq def
/nullcpdv cpdv type /nulltype eq def
nullv nullcpdv or
{
/upd true def
} {
/sametype v type cpdv type eq def
sametype {
v type /arraytype eq {
/vlen v length def
/cpdvlen cpdv length def
vlen cpdvlen eq {
0 1 vlen 1 sub {
/i exch def
/obj v i get def
/cpdobj cpdv i get def
obj cpdobj ne {
/upd true def
exit
} if
} for
} {
/upd true def
} ifelse
} {
v type /dicttype eq {
v {
/dv exch def
/dk exch def
/cpddv cpdv dk get def
dv cpddv ne {
/upd true def
exit
} if
} forall
} {
/upd true def
} ifelse
} ifelse
} if
} ifelse
upd true eq {
d k v put
} if
} if
} if
} forall
d length 0 gt {
d setpagedevice
} if
} bd
/RE { % /NewFontName [NewEncodingArray] /FontName RE -
  findfont dup length dict begin
  {
    1 index /FID ne
    {def} {pop pop} ifelse
  } forall
  /Encoding exch def
  /FontName 1 index def
  currentdict definefont pop
  end
} bind def
%%EndResource
%%BeginResource: procset (Apache XML Graphics EPS ProcSet) 1.0 0
%%Version: 1.0 0
%%Copyright: (Copyright 2002-2003 The Apache Software Foundation. License terms: http://www.apache.org/licenses/LICENSE-2.0)
/BeginEPSF { %def
/b4_Inc_state save def         % Save state for cleanup
/dict_count countdictstack def % Count objects on dict stack
/op_count count 1 sub def      % Count objects on operand stack
userdict begin                 % Push userdict on dict stack
/showpage { } def              % Redefine showpage, { } = null proc
0 setgray 0 setlinecap         % Prepare graphics state
1 setlinewidth 0 setlinejoin
10 setmiterlimit [ ] 0 setdash newpath
/languagelevel where           % If level not equal to 1 then
{pop languagelevel             % set strokeadjust and
1 ne                           % overprint to their defaults.
{false setstrokeadjust false setoverprint
} if
} if
} bd
/EndEPSF { %def
count op_count sub {pop} repeat            % Clean up stacks
countdictstack dict_count sub {end} repeat
b4_Inc_state restore
} bd
%%EndResource
%FOPBeginFontDict
%%IncludeResource: font Courier-Oblique
%%IncludeResource: font Courier-BoldOblique
%%IncludeResource: font Courier-Bold
%%IncludeResource: font ZapfDingbats
%%IncludeResource: font Symbol
%%IncludeResource: font Helvetica
%%IncludeResource: font Helvetica-Oblique
%%IncludeResource: font Helvetica-Bold
%%IncludeResource: font Helvetica-BoldOblique
%%IncludeResource: font Times-Roman
%%IncludeResource: font Times-Italic
%%IncludeResource: font Times-Bold
%%IncludeResource: font Times-BoldItalic
%%IncludeResource: font Courier
%FOPEndFontDict
%%BeginResource: encoding WinAnsiEncoding
/WinAnsiEncoding [
/.notdef /.notdef /.notdef /.notdef /.notdef
/.notdef /.notdef /.notdef /.notdef /.notdef
/.notdef /.notdef /.notdef /.notdef /.notdef
/.notdef /.notdef /.notdef /.notdef /.notdef
/.notdef /.notdef /.notdef /.notdef /.notdef
/.notdef /.notdef /.notdef /.notdef /.notdef
/.notdef /.notdef /space /exclam /quotedbl
/numbersign /dollar /percent /ampersand /quotesingle
/parenleft /parenright /asterisk /plus /comma
/hyphen /period /slash /zero /one
/two /three /four /five /six
/seven /eight /nine /colon /semicolon
/less /equal /greater /question /at
/A /B /C /D /E
/F /G /H /I /J
/K /L /M /N /O
/P /Q /R /S /T
/U /V /W /X /Y
/Z /bracketleft /backslash /bracketright /asciicircum
/underscore /quoteleft /a /b /c
/d /e /f /g /h
/i /j /k /l /m
/n /o /p /q /r
/s /t /u /v /w
/x /y /z /braceleft /bar
/braceright /asciitilde /bullet /Euro /bullet
/quotesinglbase /florin /quotedblbase /ellipsis /dagger
/daggerdbl /circumflex /perthousand /Scaron /guilsinglleft
/OE /bullet /Zcaron /bullet /bullet
/quoteleft /quoteright /quotedblleft /quotedblright /bullet
/endash /emdash /asciitilde /trademark /scaron
/guilsinglright /oe /bullet /zcaron /Ydieresis
/space /exclamdown /cent /sterling /currency
/yen /brokenbar /section /dieresis /copyright
/ordfeminine /guillemotleft /logicalnot /sfthyphen /registered
/macron /degree /plusminus /twosuperior /threesuperior
/acute /mu /paragraph /middot /cedilla
/onesuperior /ordmasculine /guillemotright /onequarter /onehalf
/threequarters /questiondown /Agrave /Aacute /Acircumflex
/Atilde /Adieresis /Aring /AE /Ccedilla
/Egrave /Eacute /Ecircumflex /Edieresis /Igrave
/Iacute /Icircumflex /Idieresis /Eth /Ntilde
/Ograve /Oacute /Ocircumflex /Otilde /Odieresis
/multiply /Oslash /Ugrave /Uacute /Ucircumflex
/Udieresis /Yacute /Thorn /germandbls /agrave
/aacute /acircumflex /atilde /adieresis /aring
/ae /ccedilla /egrave /eacute /ecircumflex
/edieresis /igrave /iacute /icircumflex /idieresis
/eth /ntilde /ograve /oacute /ocircumflex
/otilde /odieresis /divide /oslash /ugrave
/uacute /ucircumflex /udieresis /yacute /thorn
/ydieresis
] def
%%EndResource
%FOPBeginFontReencode
/Courier-Oblique findfont
dup length dict begin
  {1 index /FID ne {def} {pop pop} ifelse} forall
  /Encoding WinAnsiEncoding def
  currentdict
end
/Courier-Oblique exch definefont pop
/Courier-BoldOblique findfont
dup length dict begin
  {1 index /FID ne {def} {pop pop} ifelse} forall
  /Encoding WinAnsiEncoding def
  currentdict
end
/Courier-BoldOblique exch definefont pop
/Courier-Bold findfont
dup length dict begin
  {1 index /FID ne {def} {pop pop} ifelse} forall
  /Encoding WinAnsiEncoding def
  currentdict
end
/Courier-Bold exch definefont pop
/Helvetica findfont
dup length dict begin
  {1 index /FID ne {def} {pop pop} ifelse} forall
  /Encoding WinAnsiEncoding def
  currentdict
end
/Helvetica exch definefont pop
/Helvetica-Oblique findfont
dup length dict begin
  {1 index /FID ne {def} {pop pop} ifelse} forall
  /Encoding WinAnsiEncoding def
  currentdict
end
/Helvetica-Oblique exch definefont pop
/Helvetica-Bold findfont
dup length dict begin
  {1 index /FID ne {def} {pop pop} ifelse} forall
  /Encoding WinAnsiEncoding def
  currentdict
end
/Helvetica-Bold exch definefont pop
/Helvetica-BoldOblique findfont
dup length dict begin
  {1 index /FID ne {def} {pop pop} ifelse} forall
  /Encoding WinAnsiEncoding def
  currentdict
end
/Helvetica-BoldOblique exch definefont pop
/Times-Roman findfont
dup length dict begin
  {1 index /FID ne {def} {pop pop} ifelse} forall
  /Encoding WinAnsiEncoding def
  currentdict
end
/Times-Roman exch definefont pop
/Times-Italic findfont
dup length dict begin
  {1 index /FID ne {def} {pop pop} ifelse} forall
  /Encoding WinAnsiEncoding def
  currentdict
end
/Times-Italic exch definefont pop
/Times-Bold findfont
dup length dict begin
  {1 index /FID ne {def} {pop pop} ifelse} forall
  /Encoding WinAnsiEncoding def
  currentdict
end
/Times-Bold exch definefont pop
/Times-BoldItalic findfont
dup length dict begin
  {1 index /FID ne {def} {pop pop} ifelse} forall
  /Encoding WinAnsiEncoding def
  currentdict
end
/Times-BoldItalic exch definefont pop
/Courier findfont
dup length dict begin
  {1 index /FID ne {def} {pop pop} ifelse} forall
  /Encoding WinAnsiEncoding def
  currentdict
end
/Courier exch definefont pop
%FOPEndFontReencode
%%EndProlog
%%Page: 1 1
%%PageBoundingBox: 0 0 420 315
%%BeginPageSetup
[1 0 0 -1 0 315] CT
%%EndPageSetup
GS
[0.75 0 0 0.75 0 0] CT
1 GC
N
0 0 560 420 re
f
GR
GS
[0.75 0 0 0.75 0 0] CT
1 GC
N
0 0 560 420 re
f
GR
GS
[0.75 0 0 0.75 0 0] CT
1 GC
N
73 372 M
507 372 L
507 31 L
73 31 L
cp
f
GR
GS
[0.75 0 0 0.75 0 0] CT
2 setlinecap
1 LJ
0.667 LW
N
73 372 M
507 372 L
S
GR
GS
[0.75 0 0 0.75 0 0] CT
2 setlinecap
1 LJ
0.667 LW
N
73 31 M
507 31 L
S
GR
GS
[0.75 0 0 0.75 0 0] CT
2 setlinecap
1 LJ
0.667 LW
N
73 372 M
73 367.66 L
S
GR
GS
[0.75 0 0 0.75 0 0] CT
2 setlinecap
1 LJ
0.667 LW
N
116.4 372 M
116.4 367.66 L
S
GR
GS
[0.75 0 0 0.75 0 0] CT
2 setlinecap
1 LJ
0.667 LW
N
159.8 372 M
159.8 367.66 L
S
GR
GS
[0.75 0 0 0.75 0 0] CT
2 setlinecap
1 LJ
0.667 LW
N
203.2 372 M
203.2 367.66 L
S
GR
GS
[0.75 0 0 0.75 0 0] CT
2 setlinecap
1 LJ
0.667 LW
N
246.6 372 M
246.6 367.66 L
S
GR
GS
[0.75 0 0 0.75 0 0] CT
2 setlinecap
1 LJ
0.667 LW
N
290 372 M
290 367.66 L
S
GR
GS
[0.75 0 0 0.75 0 0] CT
2 setlinecap
1 LJ
0.667 LW
N
333.4 372 M
333.4 367.66 L
S
GR
GS
[0.75 0 0 0.75 0 0] CT
2 setlinecap
1 LJ
0.667 LW
N
376.8 372 M
376.8 367.66 L
S
GR
GS
[0.75 0 0 0.75 0 0] CT
2 setlinecap
1 LJ
0.667 LW
N
420.2 372 M
420.2 367.66 L
S
GR
GS
[0.75 0 0 0.75 0 0] CT
2 setlinecap
1 LJ
0.667 LW
N
463.6 372 M
463.6 367.66 L
S
GR
GS
[0.75 0 0 0.75 0 0] CT
2 setlinecap
1 LJ
0.667 LW
N
507 372 M
507 367.66 L
S
GR
GS
[0.75 0 0 0.75 0 0] CT
2 setlinecap
1 LJ
0.667 LW
N
73 31 M
73 35.34 L
S
GR
GS
[0.75 0 0 0.75 0 0] CT
2 setlinecap
1 LJ
0.667 LW
N
116.4 31 M
116.4 35.34 L
S
GR
GS
[0.75 0 0 0.75 0 0] CT
2 setlinecap
1 LJ
0.667 LW
N
159.8 31 M
159.8 35.34 L
S
GR
GS
[0.75 0 0 0.75 0 0] CT
2 setlinecap
1 LJ
0.667 LW
N
203.2 31 M
203.2 35.34 L
S
GR
GS
[0.75 0 0 0.75 0 0] CT
2 setlinecap
1 LJ
0.667 LW
N
246.6 31 M
246.6 35.34 L
S
GR
GS
[0.75 0 0 0.75 0 0] CT
2 setlinecap
1 LJ
0.667 LW
N
290 31 M
290 35.34 L
S
GR
GS
[0.75 0 0 0.75 0 0] CT
2 setlinecap
1 LJ
0.667 LW
N
333.4 31 M
333.4 35.34 L
S
GR
GS
[0.75 0 0 0.75 0 0] CT
2 setlinecap
1 LJ
0.667 LW
N
376.8 31 M
376.8 35.34 L
S
GR
GS
[0.75 0 0 0.75 0 0] CT
2 setlinecap
1 LJ
0.667 LW
N
420.2 31 M
420.2 35.34 L
S
GR
GS
[0.75 0 0 0.75 0 0] CT
2 setlinecap
1 LJ
0.667 LW
N
463.6 31 M
463.6 35.34 L
S
GR
GS
[0.75 0 0 0.75 0 0] CT
2 setlinecap
1 LJ
0.667 LW
N
507 31 M
507 35.34 L
S
GR
GS
[0.75 0 0 0.75 54.75 283.00001] CT
/Helvetica 13.333 F
GS
[1 0 0 1 0 0] CT
-4 13 moveto 
1 -1 scale
(0) t 
GR
GR
GS
[0.75 0 0 0.75 87.3 283.00001] CT
/Helvetica 13.333 F
GS
[1 0 0 1 0 0] CT
-17 13 moveto 
1 -1 scale
(0.001) t 
GR
GR
GS
[0.75 0 0 0.75 119.85 283.00001] CT
/Helvetica 13.333 F
GS
[1 0 0 1 0 0] CT
-17 13 moveto 
1 -1 scale
(0.002) t 
GR
GR
GS
[0.75 0 0 0.75 152.4 283.00001] CT
/Helvetica 13.333 F
GS
[1 0 0 1 0 0] CT
-17 13 moveto 
1 -1 scale
(0.003) t 
GR
GR
GS
[0.75 0 0 0.75 184.95 283.00001] CT
/Helvetica 13.333 F
GS
[1 0 0 1 0 0] CT
-17 13 moveto 
1 -1 scale
(0.004) t 
GR
GR
GS
[0.75 0 0 0.75 217.5 283.00001] CT
/Helvetica 13.333 F
GS
[1 0 0 1 0 0] CT
-17 13 moveto 
1 -1 scale
(0.005) t 
GR
GR
GS
[0.75 0 0 0.75 250.05 283.00001] CT
/Helvetica 13.333 F
GS
[1 0 0 1 0 0] CT
-17 13 moveto 
1 -1 scale
(0.006) t 
GR
GR
GS
[0.75 0 0 0.75 282.60001 283.00001] CT
/Helvetica 13.333 F
GS
[1 0 0 1 0 0] CT
-17 13 moveto 
1 -1 scale
(0.007) t 
GR
GR
GS
[0.75 0 0 0.75 315.15001 283.00001] CT
/Helvetica 13.333 F
GS
[1 0 0 1 0 0] CT
-17 13 moveto 
1 -1 scale
(0.008) t 
GR
GR
GS
[0.75 0 0 0.75 347.69998 283.00001] CT
/Helvetica 13.333 F
GS
[1 0 0 1 0 0] CT
-17 13 moveto 
1 -1 scale
(0.009) t 
GR
GR
GS
[0.75 0 0 0.75 380.25 283.00001] CT
/Helvetica 13.333 F
GS
[1 0 0 1 0 0] CT
-13 13 moveto 
1 -1 scale
(0.01) t 
GR
GR
GS
[0.75 0 0 0.75 210 307.5] CT
N
1.844 -2.109 M
1.844 -1.609 2.031 -1.18 QT
2.219 -0.75 2.586 -0.492 QT
2.953 -0.234 3.453 -0.234 QT
3.781 -0.234 4.164 -0.375 QT
4.547 -0.516 4.875 -0.695 QT
5.203 -0.875 5.203 -0.875 QT
5.281 -0.875 5.336 -0.781 QT
5.391 -0.688 5.391 -0.594 QT
5.391 -0.516 5.344 -0.5 QT
4.406 0.172 3.438 0.172 QT
2.641 0.172 2.008 -0.203 QT
1.375 -0.578 1.023 -1.234 QT
0.672 -1.891 0.672 -2.672 QT
0.672 -3.453 0.984 -4.148 QT
1.297 -4.844 1.859 -5.367 QT
2.422 -5.891 3.125 -6.18 QT
3.828 -6.469 4.594 -6.469 QT
5.438 -6.469 L
5.672 -6.469 5.672 -6.234 QT
5.672 -6.109 5.586 -6.023 QT
5.5 -5.938 5.391 -5.938 QT
4.563 -5.938 L
3.969 -5.938 3.477 -5.672 QT
2.984 -5.406 2.656 -4.938 QT
2.328 -4.469 2.141 -3.875 QT
4.797 -3.875 L
4.906 -3.875 4.969 -3.813 QT
5.031 -3.75 5.031 -3.656 QT
5.031 -3.531 4.945 -3.445 QT
4.859 -3.359 4.734 -3.359 QT
2 -3.359 L
1.844 -2.578 1.844 -2.109 QT
cp
f
GR
GS
[0.75 0 0 0.75 214.5 312.75] CT
/Helvetica 11.733 F
GS
[1 0 0 1 0 0] CT
0 0 moveto 
1 -1 scale
(11) t 
GR
GR
GS
[0.75 0 0 0.75 0 0] CT
2 setlinecap
1 LJ
0.667 LW
N
73 372 M
73 31 L
S
GR
GS
[0.75 0 0 0.75 0 0] CT
2 setlinecap
1 LJ
0.667 LW
N
507 372 M
507 31 L
S
GR
GS
[0.75 0 0 0.75 0 0] CT
2 setlinecap
1 LJ
0.667 LW
N
73 372 M
77.34 372 L
S
GR
GS
[0.75 0 0 0.75 0 0] CT
2 setlinecap
1 LJ
0.667 LW
N
73 303.8 M
77.34 303.8 L
S
GR
GS
[0.75 0 0 0.75 0 0] CT
2 setlinecap
1 LJ
0.667 LW
N
73 235.6 M
77.34 235.6 L
S
GR
GS
[0.75 0 0 0.75 0 0] CT
2 setlinecap
1 LJ
0.667 LW
N
73 167.4 M
77.34 167.4 L
S
GR
GS
[0.75 0 0 0.75 0 0] CT
2 setlinecap
1 LJ
0.667 LW
N
73 99.2 M
77.34 99.2 L
S
GR
GS
[0.75 0 0 0.75 0 0] CT
2 setlinecap
1 LJ
0.667 LW
N
73 31 M
77.34 31 L
S
GR
GS
[0.75 0 0 0.75 0 0] CT
2 setlinecap
1 LJ
0.667 LW
N
507 372 M
502.66 372 L
S
GR
GS
[0.75 0 0 0.75 0 0] CT
2 setlinecap
1 LJ
0.667 LW
N
507 303.8 M
502.66 303.8 L
S
GR
GS
[0.75 0 0 0.75 0 0] CT
2 setlinecap
1 LJ
0.667 LW
N
507 235.6 M
502.66 235.6 L
S
GR
GS
[0.75 0 0 0.75 0 0] CT
2 setlinecap
1 LJ
0.667 LW
N
507 167.4 M
502.66 167.4 L
S
GR
GS
[0.75 0 0 0.75 0 0] CT
2 setlinecap
1 LJ
0.667 LW
N
507 99.2 M
502.66 99.2 L
S
GR
GS
[0.75 0 0 0.75 0 0] CT
2 setlinecap
1 LJ
0.667 LW
N
507 31 M
502.66 31 L
S
GR
GS
[0.75 0 0 0.75 50.75 279] CT
/Helvetica 13.333 F
GS
[1 0 0 1 0 0] CT
-8 4.5 moveto 
1 -1 scale
(0) t 
GR
GR
GS
[0.75 0 0 0.75 50.75 227.84999] CT
/Helvetica 13.333 F
GS
[1 0 0 1 0 0] CT
-15 4.5 moveto 
1 -1 scale
(50) t 
GR
GR
GS
[0.75 0 0 0.75 50.75 176.7] CT
/Helvetica 13.333 F
GS
[1 0 0 1 0 0] CT
-23 4.5 moveto 
1 -1 scale
(100) t 
GR
GR
GS
[0.75 0 0 0.75 50.75 125.55] CT
/Helvetica 13.333 F
GS
[1 0 0 1 0 0] CT
-23 4.5 moveto 
1 -1 scale
(150) t 
GR
GR
GS
[0.75 0 0 0.75 50.75 74.4] CT
/Helvetica 13.333 F
GS
[1 0 0 1 0 0] CT
-23 4.5 moveto 
1 -1 scale
(200) t 
GR
GR
GS
[0.75 0 0 0.75 50.75 23.25] CT
/Helvetica 13.333 F
GS
[1 0 0 1 0 0] CT
-23 4.5 moveto 
1 -1 scale
(250) t 
GR
GR
GS
[0 -0.75 0.75 0 23.25 159.75] CT
N
2.813 0.172 M
2.141 0.172 1.625 -0.148 QT
1.109 -0.469 0.828 -1.008 QT
0.547 -1.547 0.547 -2.203 QT
0.547 -2.906 0.859 -3.672 QT
1.172 -4.438 1.719 -5.078 QT
2.266 -5.719 2.953 -6.094 QT
3.641 -6.469 4.359 -6.469 QT
8.141 -6.469 L
8.297 -6.469 8.406 -6.367 QT
8.516 -6.266 8.516 -6.094 QT
8.516 -5.859 8.359 -5.695 QT
8.203 -5.531 7.984 -5.531 QT
6.156 -5.531 L
6.578 -4.891 6.578 -3.984 QT
6.578 -3.219 6.289 -2.492 QT
6 -1.766 5.477 -1.156 QT
4.953 -0.547 4.266 -0.188 QT
3.578 0.172 2.813 0.172 QT
cp
2.813 -0.234 M
3.641 -0.234 4.273 -0.875 QT
4.906 -1.516 5.242 -2.438 QT
5.578 -3.359 5.578 -4.156 QT
5.578 -4.797 5.227 -5.164 QT
4.875 -5.531 4.234 -5.531 QT
3.359 -5.531 2.75 -4.945 QT
2.141 -4.359 1.836 -3.477 QT
1.531 -2.594 1.531 -1.766 QT
1.531 -1.125 1.875 -0.68 QT
2.219 -0.234 2.813 -0.234 QT
cp
f
GR
GS
[0 -0.75 0.75 0 28.5 153] CT
/Helvetica 11.733 F
GS
[1 0 0 1 0 0] CT
0 0 moveto 
1 -1 scale
(11) t 
GR
GR
GS
[0.75 0 0 0.75 0 0] CT
1 LJ
0.667 LW
N
73 372 M
77.384 343.067 L
81.768 314.133 L
86.152 285.2 L
90.535 256.267 L
94.919 227.333 L
99.303 198.4 L
103.687 169.467 L
108.071 140.533 L
112.455 111.6 L
116.838 82.667 L
121.222 71.92 L
125.606 71.92 L
129.99 71.92 L
134.374 71.92 L
138.758 71.92 L
143.141 71.92 L
147.525 71.92 L
151.909 71.92 L
156.293 71.92 L
160.677 71.92 L
165.061 71.92 L
169.444 71.92 L
173.828 71.92 L
178.212 71.92 L
182.596 71.92 L
186.98 71.92 L
191.364 71.92 L
195.747 71.92 L
200.131 71.92 L
204.515 71.92 L
208.899 71.92 L
213.283 71.92 L
217.667 71.92 L
222.051 71.92 L
226.434 71.92 L
230.818 71.92 L
235.202 71.92 L
239.586 71.92 L
243.97 71.92 L
248.354 71.92 L
252.737 71.92 L
257.121 71.92 L
261.505 71.92 L
265.889 71.92 L
270.273 71.92 L
274.657 71.92 L
279.04 71.92 L
283.424 71.92 L
287.808 71.92 L
292.192 71.92 L
296.576 71.92 L
300.96 71.92 L
305.343 71.92 L
309.727 71.92 L
314.111 71.92 L
318.495 71.92 L
322.879 71.92 L
327.263 71.92 L
331.646 71.92 L
336.03 71.92 L
340.414 71.92 L
344.798 71.92 L
349.182 71.92 L
353.566 71.92 L
357.949 71.92 L
362.333 71.92 L
366.717 71.92 L
371.101 71.92 L
375.485 71.92 L
379.869 71.92 L
384.253 71.92 L
388.636 71.92 L
393.02 71.92 L
397.404 71.92 L
401.788 71.92 L
406.172 71.92 L
410.556 71.92 L
414.939 71.92 L
419.323 71.92 L
423.707 71.92 L
428.091 71.92 L
432.475 71.92 L
436.859 71.92 L
441.242 71.92 L
445.626 71.92 L
450.01 71.92 L
454.394 71.92 L
458.778 71.92 L
463.162 71.92 L
467.545 71.92 L
471.929 71.92 L
476.313 71.92 L
480.697 71.92 L
485.081 71.92 L
489.465 71.92 L
493.848 71.92 L
498.232 71.92 L
502.616 71.92 L
507 71.92 L
S
GR
%%Trailer
%%Pages: 1
%%EOF
